Constructing your own feature detector • gaitFeature
…
A naive example

In principle, feature detectors are just functions which take a data.frame and return another with columns curve_id, Cl:xxx, and fname, where Cl:xxx is the clause component of the feature definition, and fname is the machine-friendly feature name. So, for example,

library(gaitFeature)

myRandomDetector=function(x){
  detected=sample(0:1,nrow(x),TRUE)
  data_frame(curve_id=x$curve_id,
             "Cl:random"=as.logical(detected),
             Random=detected)
}

myRandomDetector(kinematics)
#> # A tibble: 180 x 3
#>    curve_id `Cl:random` Random
#>       <int>       <lgl>  <int>
#>  1        1       FALSE      0
#>  2        2       FALSE      0
#>  3        3        TRUE      1
#>  4        4       FALSE      0
#>  5        5       FALSE      0
#>  6        6        TRUE      1
#>  7        7        TRUE      1
#>  8        8       FALSE      0
#>  9        9        TRUE      1
#> 10       10        TRUE      1
#> # ... with 170 more rows

And you can use the detectAll function with it.

detectAll(kinematics,fDict=data.frame(fn="myRandomDetector"))%>%
  select(-(`0`:`100`))
#> # A tibble: 180 x 6
#>    curve_id        joint  side plane   ofs Random
#>       <int>        <chr> <chr> <chr> <dbl>  <int>
#>  1        1          Pel     L   sag    49      1
#>  2        2          Pel     R   sag    52      1
#>  3        3          Hip     L   sag    49      0
#>  4        4          Hip     R   sag    52      0
#>  5        5         Knee     L   sag    49      0
#>  6        6         Knee     R   sag    52      0
#>  7        7        Ankle     L   sag    49      0
#>  8        8        Ankle     R   sag    52      1
#>  9        9 FootProgress     L   sag    49      0
#> 10       10 FootProgress     R   sag    52      0
#> # ... with 170 more rows
…
