gaitFeature • gaitFeature
…
This is an R package so I assume you are already familiar with R.

Throughout this guide we will be using the dataset kinematics which comes with this package.

Installation

Quick Start

The functions in this package assume the kinematics data is already loaded in R, in the wide format. Specifically, the kinematics data.frame should contain at least columns curve_id, joint, plane, 0,1,2,...,100. Each row in the dataframe represent a kinematics curve on a particular joint and plane, identified by field curve_id, with data at 101 time points 0,1,2,...,100.

The package ships with an example data kinematics.

library(gaitFeature)
kinematics
#> # A tibble: 180 x 106
#>    curve_id        joint  side plane   ofs      `0`      `1`      `2`
#>       <int>        <chr> <chr> <chr> <dbl>    <dbl>    <dbl>    <dbl>
#>  1        1          Pel     L   sag    49  28.1692  28.1426  28.1362
#>  2        2          Pel     R   sag    52  27.8176  27.8680  27.9559
#>  3        3          Hip     L   sag    49  52.3993  52.4592  52.6038
#>  4        4          Hip     R   sag    52  54.1121  55.2759  56.5592
#>  5        5         Knee     L   sag    49  17.1870  19.1833  21.5705
#>  6        6         Knee     R   sag    52  10.8145  13.8076  17.4061
#>  7        7        Ankle     L   sag    49  -1.9163  -1.0102   0.2010
#>  8        8        Ankle     R   sag    52  -7.2675  -7.1322  -6.3854
#>  9        9 FootProgress     L   sag    49 -95.2231 -94.2537 -93.2627
#> 10       10 FootProgress     R   sag    52 -99.2538 -97.5804 -96.0387
#> # ... with 170 more rows, and 98 more variables: `3` <dbl>, `4` <dbl>,
#> #   `5` <dbl>, `6` <dbl>, `7` <dbl>, `8` <dbl>, `9` <dbl>, `10` <dbl>,
#> #   `11` <dbl>, `12` <dbl>, `13` <dbl>, `14` <dbl>, `15` <dbl>,
#> #   `16` <dbl>, `17` <dbl>, `18` <dbl>, `19` <dbl>, `20` <dbl>,
#> #   `21` <dbl>, `22` <dbl>, `23` <dbl>, `24` <dbl>, `25` <dbl>,
#> #   `26` <dbl>, `27` <dbl>, `28` <dbl>, `29` <dbl>, `30` <dbl>,
#> #   `31` <dbl>, `32` <dbl>, `33` <dbl>, `34` <dbl>, `35` <dbl>,
#> #   `36` <dbl>, `37` <dbl>, `38` <dbl>, `39` <dbl>, `40` <dbl>,
#> #   `41` <dbl>, `42` <dbl>, `43` <dbl>, `44` <dbl>, `45` <dbl>,
…
The simplest use is to run the detectAll function which runs all the off-the-shelf feature detectors on the supplied dataframe.

detected=detectAll(kinematics)
detected%>%select(-(`0`:`100`))
#> # A tibble: 180 x 53
#>    curve_id        joint  side plane   ofs   AIR  DblB DFdec KFxatLdec
#>       <int>        <chr> <chr> <chr> <dbl> <dbl> <dbl> <dbl>     <dbl>
#>  1        1          Pel     L   sag    49    NA     1    NA        NA
#>  2        2          Pel     R   sag    52    NA     1    NA        NA
#>  3        3          Hip     L   sag    49    NA    NA    NA        NA
#>  4        4          Hip     R   sag    52    NA    NA    NA        NA
#>  5        5         Knee     L   sag    49    NA    NA    NA         0
#>  6        6         Knee     R   sag    52    NA    NA    NA         0
#>  7        7        Ankle     L   sag    49    NA    NA     0        NA
#>  8        8        Ankle     R   sag    52    NA    NA     0        NA
#>  9        9 FootProgress     L   sag    49    NA    NA    NA        NA
#> 10       10 FootProgress     R   sag    52    NA    NA    NA        NA
#> # ... with 170 more rows, and 44 more variables: HFxatICdec <dbl>,
#> #   Tiltdec <dbl>, TiltdecAndROMinc <dbl>, PkKFxdec <dbl>,
#> #   DlyPkKFxdec <dbl>, DlyPkKFxat <dbl>, DlyPkKFx <dbl>, Desc2R <dbl>,
#> #   DFatSwg <dbl>, EPS <dbl>, Abd <dbl>, AbdatSwn <dbl>, Add <dbl>,
#> #   FtD <dbl>, KFxatMSinc <dbl>, H2R <dbl>, AddatStn <dbl>, HER <dbl>,
#> #   HExtdec <dbl>, HypHFx <dbl>, HIR <dbl>, HypE <dbl>, DFinc <dbl>,
#> #   KFxatICinc <dbl>, KFxatICincAndEE <dbl>, HExtatMSinc <dbl>,
#> #   HFxinc <dbl>, HFxincAndROMdec <dbl>, HIRatLSinc <dbl>, MaxDFinc <dbl>,
#> #   PROMinc <dbl>, PRotROMinc <dbl>, Tiltinc <dbl>,
#> #   TiltincAndROMinc <dbl>, PFinc <dbl>, PkKFxat <dbl>, In <dbl>,
#> #   iPP <dbl>, N1R <dbl>, Out <dbl>, ElevOrDep <dbl>, ProOrRe <dbl>,
#> #   PrevROM <dbl>, S2R <dbl>

Notice that packages dplyr, and tidyr are loaded by default when this package is loaded.

detectAll returns the same data.frame as what is supplied, with extra columns – one for each feature. If the feature column is NA, it means that feature is not applicable to that curve (e.g. Ankle Internal Rotation (AIR) not relevant for the Pelvis curve.) If the field is 1 then that feature is detected, and 0 indicates the contrary.

The list of feature detectors that are called by detectAll is specified through the fDict argument. This argument should be a data.frame with column fn which list the names of the detectors to be called. Furthermore, it can have columns joint and plane which indicates which joint and plane a particular detector is related to. If fDict=NULL (default), it is generated on the spot by the makeFDict function.

makeFDict()
#> # A tibble: 48 x 5
#>                     fn joint plane            fname
#>                  <chr> <chr> <chr>            <chr>
#>  1              .dtAIR Ankle   tra              AIR
#>  2          .dtDblBump   Pel   sag             DblB
#>  3            .dtDecDF Ankle   sag            DFdec
#>  4     .dtDecFxLoading  Knee   sag        KFxatLdec
#>  5       .dtDecHipFxIC   Hip   sag       HFxatICdec
#>  6       .dtDecPelTilt   Pel   sag          Tiltdec
#>  7 .dtDecPelTiltIncROM   Pel   sag TiltdecAndROMinc
#>  8        .dtDecPkKnFx  Knee   sag         PkKFxdec
#>  9   .dtDelayDecPkKnFx  Knee   sag      DlyPkKFxdec
#> 10   .dtDelayIncPkKnFx  Knee   sag       DlyPkKFxat
#> # ... with 38 more rows, and 1 more variables: featurename <chr>

If you are only interested at features that are a particular joint or plane, you can specify that in the detectAll call. But make sure the joint and plane value appears in the fDict data.frame.

detectAll(kinematics, joint="Hip", plane="sag")%>%
  select(-(`0`:`100`))
#> # A tibble: 180 x 11
#>    curve_id        joint  side plane   ofs HFxatICdec HExtdec HypHFx
#>       <int>        <chr> <chr> <chr> <dbl>      <dbl>   <dbl>  <dbl>
#>  1        1          Pel     L   sag    49         NA      NA     NA
#>  2        2          Pel     R   sag    52         NA      NA     NA
#>  3        3          Hip     L   sag    49          0       0      0
#>  4        4          Hip     R   sag    52          0       0      0
#>  5        5         Knee     L   sag    49         NA      NA     NA
#>  6        6         Knee     R   sag    52         NA      NA     NA
#>  7        7        Ankle     L   sag    49         NA      NA     NA
#>  8        8        Ankle     R   sag    52         NA      NA     NA
#>  9        9 FootProgress     L   sag    49         NA      NA     NA
#> 10       10 FootProgress     R   sag    52         NA      NA     NA
#> # ... with 170 more rows, and 3 more variables: HExtatMSinc <dbl>,
#> #   HFxinc <dbl>, HFxincAndROMdec <dbl>
…
Although the package ships with its own set of feature detectors. It is actually not that difficult to incorporate your own. All the shipped feature detectors are functions whose name starts with .dt. See ?definitions.

A naive example

In principle, feature detectors are just functions which take a data.frame and return another with columns curve_id, Cl:xxx, and fname, where Cl:xxx is the clause component of the feature definition, and fname is the machine-friendly feature name. So, for example,

myRandomDetector=function(x){
  detected=sample(0:1,nrow(x),TRUE)
  data_frame(curve_id=x$curve_id,
             "Cl:random"=as.logical(detected),
             Random=detected)
}

myRandomDetector(kinematics)
#> # A tibble: 180 x 3
#>    curve_id `Cl:random` Random
#>       <int>       <lgl>  <int>
#>  1        1       FALSE      0
#>  2        2        TRUE      1
#>  3        3        TRUE      1
#>  4        4        TRUE      1
#>  5        5       FALSE      0
#>  6        6       FALSE      0
#>  7        7        TRUE      1
#>  8        8        TRUE      1
#>  9        9       FALSE      0
#> 10       10        TRUE      1
#> # ... with 170 more rows

And you can use the detectAll function with it.

detectAll(kinematics,fDict=data.frame(fn="myRandomDetector"))%>%
  select(-(`0`:`100`))
#> # A tibble: 180 x 6
#>    curve_id        joint  side plane   ofs Random
#>       <int>        <chr> <chr> <chr> <dbl>  <int>
#>  1        1          Pel     L   sag    49      1
#>  2        2          Pel     R   sag    52      1
#>  3        3          Hip     L   sag    49      0
#>  4        4          Hip     R   sag    52      1
#>  5        5         Knee     L   sag    49      0
#>  6        6         Knee     R   sag    52      1
#>  7        7        Ankle     L   sag    49      0
#>  8        8        Ankle     R   sag    52      1
#>  9        9 FootProgress     L   sag    49      1
#> 10       10 FootProgress     R   sag    52      0
#> # ... with 170 more rows

If you want to use the joint and plane filter in detectAll, then you need to include those in the feature dictionary fDict.

myRandomDetector2=function(x){
  x=filter(x,joint=="Knee",plane=="sag")
  myRandomDetector(x)
}
detectAll(kinematics,plane="sag",fDict=data_frame(joint="Knee",plane="sag",fn="myRandomDetector2"))%>%
  select(-(`0`:`100`))
#> # A tibble: 180 x 6
#>    curve_id        joint  side plane   ofs Random
#>       <int>        <chr> <chr> <chr> <dbl>  <int>
#>  1        1          Pel     L   sag    49     NA
#>  2        2          Pel     R   sag    52     NA
#>  3        3          Hip     L   sag    49     NA
#>  4        4          Hip     R   sag    52     NA
#>  5        5         Knee     L   sag    49      0
#>  6        6         Knee     R   sag    52      1
#>  7        7        Ankle     L   sag    49     NA
#>  8        8        Ankle     R   sag    52     NA
#>  9        9 FootProgress     L   sag    49     NA
#> 10       10 FootProgress     R   sag    52     NA
#> # ... with 170 more rows

## use a list of feature detectors.
oldfDict=makeFDict()%>%filter(joint=="Knee",plane=="sag")
fDict=rbind(oldfDict,
            data_frame(joint="Knee",
                       plane="sag",
                       fn="myRandomDetector2",
                       fname="Rnd",
                       featurename="Silly Random Feature"))
detectAll(kinematics,
          plane="sag",
          joint="Knee",
          fDict=fDict)%>%
  select(-(`0`:`100`))
#> # A tibble: 180 x 16
#>    curve_id        joint  side plane   ofs KFxatLdec PkKFxdec DlyPkKFxdec
#>       <int>        <chr> <chr> <chr> <dbl>     <dbl>    <dbl>       <dbl>
#>  1        1          Pel     L   sag    49        NA       NA          NA
#>  2        2          Pel     R   sag    52        NA       NA          NA
#>  3        3          Hip     L   sag    49        NA       NA          NA
#>  4        4          Hip     R   sag    52        NA       NA          NA
#>  5        5         Knee     L   sag    49         0        0           0
#>  6        6         Knee     R   sag    52         0        0           0
#>  7        7        Ankle     L   sag    49        NA       NA          NA
#>  8        8        Ankle     R   sag    52        NA       NA          NA
#>  9        9 FootProgress     L   sag    49        NA       NA          NA
#> 10       10 FootProgress     R   sag    52        NA       NA          NA
#> # ... with 170 more rows, and 8 more variables: DlyPkKFxat <dbl>,
#> #   DlyPkKFx <dbl>, KFxatMSinc <dbl>, HypE <dbl>, KFxatICinc <dbl>,
#> #   KFxatICincAndEE <dbl>, PkKFxat <dbl>, Random <int>
…
