detect gait kinematics features — detectAll â€¢ gaitFeature
…
    Value

    the same as x but augmented with extra columns indicating the detected features.

    Details

    For individual feature definitions see definitions.

    Examples

detectAll(kinematics)
#> # A tibble: 180 x 154
#>    curve_id        joint  side plane   ofs      `0`      `1`      `2`      `3`
#>       <int>        <chr> <chr> <chr> <dbl>    <dbl>    <dbl>    <dbl>    <dbl>
#>  1        1          Pel     L   sag    49  28.1692  28.1426  28.1362  28.1502
#>  2        2          Pel     R   sag    52  27.8176  27.8680  27.9559  28.0778
#>  3        3          Hip     L   sag    49  52.3993  52.4592  52.6038  52.7713
#>  4        4          Hip     R   sag    52  54.1121  55.2759  56.5592  57.8698
#>  5        5         Knee     L   sag    49  17.1870  19.1833  21.5705  24.1406
#>  6        6         Knee     R   sag    52  10.8145  13.8076  17.4061  21.3575
#>  7        7        Ankle     L   sag    49  -1.9163  -1.0102   0.2010   1.6512
#>  8        8        Ankle     R   sag    52  -7.2675  -7.1322  -6.3854  -5.0862
#>  9        9 FootProgress     L   sag    49 -95.2231 -94.2537 -93.2627 -92.3236
#> 10       10 FootProgress     R   sag    52 -99.2538 -97.5804 -96.0387 -94.7146
#> # ... with 170 more rows, and 145 more variables: `4` <dbl>, `5` <dbl>,
#> #   `6` <dbl>, `7` <dbl>, `8` <dbl>, `9` <dbl>, `10` <dbl>, `11` <dbl>,
#> #   `12` <dbl>, `13` <dbl>, `14` <dbl>, `15` <dbl>, `16` <dbl>, `17` <dbl>,
#> #   `18` <dbl>, `19` <dbl>, `20` <dbl>, `21` <dbl>, `22` <dbl>, `23` <dbl>,
#> #   `24` <dbl>, `25` <dbl>, `26` <dbl>, `27` <dbl>, `28` <dbl>, `29` <dbl>,
#> #   `30` <dbl>, `31` <dbl>, `32` <dbl>, `33` <dbl>, `34` <dbl>, `35` <dbl>,
#> #   `36` <dbl>, `37` <dbl>, `38` <dbl>, `39` <dbl>, `40` <dbl>, `41` <dbl>,
#> #   `42` <dbl>, `43` <dbl>, `44` <dbl>, `45` <dbl>, `46` <dbl>, `47` <dbl>,
#> #   `48` <dbl>, `49` <dbl>, `50` <dbl>, `51` <dbl>, `52` <dbl>, `53` <dbl>,
#> #   `54` <dbl>, `55` <dbl>, `56` <dbl>, `57` <dbl>, `58` <dbl>, `59` <dbl>,
#> #   `60` <dbl>, `61` <dbl>, `62` <dbl>, `63` <dbl>, `64` <dbl>, `65` <dbl>,
#> #   `66` <dbl>, `67` <dbl>, `68` <dbl>, `69` <dbl>, `70` <dbl>, `71` <dbl>,
#> #   `72` <dbl>, `73` <dbl>, `74` <dbl>, `75` <dbl>, `76` <dbl>, `77` <dbl>,
#> #   `78` <dbl>, `79` <dbl>, `80` <dbl>, `81` <dbl>, `82` <dbl>, `83` <dbl>,
#> #   `84` <dbl>, `85` <dbl>, `86` <dbl>, `87` <dbl>, `88` <dbl>, `89` <dbl>,
#> #   `90` <dbl>, `91` <dbl>, `92` <dbl>, `93` <dbl>, `94` <dbl>, `95` <dbl>,
#> #   `96` <dbl>, `97` <dbl>, `98` <dbl>, `99` <dbl>, `100` <dbl>, AIR <dbl>,
#> #   DblB <dbl>, DFdec <dbl>, ...
detectAll(kinematics, plane="sag")
#> # A tibble: 180 x 138
#>    curve_id        joint  side plane   ofs      `0`      `1`      `2`      `3`
#>       <int>        <chr> <chr> <chr> <dbl>    <dbl>    <dbl>    <dbl>    <dbl>
#>  1        1          Pel     L   sag    49  28.1692  28.1426  28.1362  28.1502
#>  2        2          Pel     R   sag    52  27.8176  27.8680  27.9559  28.0778
#>  3        3          Hip     L   sag    49  52.3993  52.4592  52.6038  52.7713
#>  4        4          Hip     R   sag    52  54.1121  55.2759  56.5592  57.8698
#>  5        5         Knee     L   sag    49  17.1870  19.1833  21.5705  24.1406
#>  6        6         Knee     R   sag    52  10.8145  13.8076  17.4061  21.3575
#>  7        7        Ankle     L   sag    49  -1.9163  -1.0102   0.2010   1.6512
#>  8        8        Ankle     R   sag    52  -7.2675  -7.1322  -6.3854  -5.0862
#>  9        9 FootProgress     L   sag    49 -95.2231 -94.2537 -93.2627 -92.3236
#> 10       10 FootProgress     R   sag    52 -99.2538 -97.5804 -96.0387 -94.7146
#> # ... with 170 more rows, and 129 more variables: `4` <dbl>, `5` <dbl>,
#> #   `6` <dbl>, `7` <dbl>, `8` <dbl>, `9` <dbl>, `10` <dbl>, `11` <dbl>,
#> #   `12` <dbl>, `13` <dbl>, `14` <dbl>, `15` <dbl>, `16` <dbl>, `17` <dbl>,
#> #   `18` <dbl>, `19` <dbl>, `20` <dbl>, `21` <dbl>, `22` <dbl>, `23` <dbl>,
#> #   `24` <dbl>, `25` <dbl>, `26` <dbl>, `27` <dbl>, `28` <dbl>, `29` <dbl>,
#> #   `30` <dbl>, `31` <dbl>, `32` <dbl>, `33` <dbl>, `34` <dbl>, `35` <dbl>,
#> #   `36` <dbl>, `37` <dbl>, `38` <dbl>, `39` <dbl>, `40` <dbl>, `41` <dbl>,
#> #   `42` <dbl>, `43` <dbl>, `44` <dbl>, `45` <dbl>, `46` <dbl>, `47` <dbl>,
#> #   `48` <dbl>, `49` <dbl>, `50` <dbl>, `51` <dbl>, `52` <dbl>, `53` <dbl>,
…
