Get reference curve — getRC â€¢ gaitFeature
…
      .plane
      plane name

    Value

    a dataframe of referene curve filtered to the specified joint and plane.

    See also

    rc

    Examples

getRC("Ankle","sag")
#> # A tibble: 31 x 101
#>       `0`    `1`    `2`   `3`   `4`   `5`   `6`   `7`    `8`    `9`   `10`
#>     <dbl>  <dbl>  <dbl> <dbl> <dbl> <dbl> <dbl> <dbl>  <dbl>  <dbl>  <dbl>
#>  1 -2.48  -3.43  -4.28  -4.93 -5.31 -5.37 -5.12 -4.61 -3.90  -3.07  -2.18 
#>  2 -2.10  -3.47  -4.78  -5.88 -6.65 -7.02 -7.00 -6.63 -5.97  -5.14  -4.22 
#>  3 -1.62  -2.63  -3.55  -4.28 -4.76 -4.94 -4.85 -4.51 -3.96  -3.26  -2.46 
#>  4 -1.56  -2.29  -2.92  -3.41 -3.69 -3.71 -3.49 -3.06 -2.44  -1.67  -0.810
#>  5 -1.74  -3.13  -4.66  -6.17 -7.49 -8.48 -9.08 -9.26 -9.07  -8.59  -7.89 
#>  6  1.48   0.314 -0.905 -2.03 -2.91 -3.44 -3.57 -3.33 -2.78  -2.00  -1.08 
#>  7  0.349 -0.699 -1.58  -2.19 -2.47 -2.41 -2.03 -1.41 -0.603  0.320  1.30 
#>  8 -6.41  -6.86  -7.16  -7.23 -7.05 -6.59 -5.88 -4.96 -3.89  -2.73  -1.55 
#>  9 -5.88  -6.70  -7.40  -7.86 -8.00 -7.79 -7.22 -6.33 -5.19  -3.88  -2.50 
#> 10 -1.93  -2.81  -3.62  -4.25 -4.64 -4.74 -4.52 -4.01 -3.23  -2.25  -1.12 
#> # ... with 21 more rows, and 90 more variables: `11` <dbl>, `12` <dbl>,
#> #   `13` <dbl>, `14` <dbl>, `15` <dbl>, `16` <dbl>, `17` <dbl>, `18` <dbl>,
#> #   `19` <dbl>, `20` <dbl>, `21` <dbl>, `22` <dbl>, `23` <dbl>, `24` <dbl>,
#> #   `25` <dbl>, `26` <dbl>, `27` <dbl>, `28` <dbl>, `29` <dbl>, `30` <dbl>,
#> #   `31` <dbl>, `32` <dbl>, `33` <dbl>, `34` <dbl>, `35` <dbl>, `36` <dbl>,
#> #   `37` <dbl>, `38` <dbl>, `39` <dbl>, `40` <dbl>, `41` <dbl>, `42` <dbl>,
#> #   `43` <dbl>, `44` <dbl>, `45` <dbl>, `46` <dbl>, `47` <dbl>, `48` <dbl>,
#> #   `49` <dbl>, `50` <dbl>, `51` <dbl>, `52` <dbl>, `53` <dbl>, `54` <dbl>,
#> #   `55` <dbl>, `56` <dbl>, `57` <dbl>, `58` <dbl>, `59` <dbl>, `60` <dbl>,
…
